Jet lag calculation checks
…
Song, Severini, and Allada (“SSA”) estimated the jet lag of teams using Retrosheet game logs for MLB games from 1992 through 2011. Starting from the game logs and working from their criteria, I’ve attempted to generate the same jet lag data set. To convince myself that I’ve more or less done so, I’ll (1) make a few summary plots to see if things look reasonable and (2) crosscheck my overall numbers with the information available in SSA’s supplemental tables.

A few sanity checks

Distribution of games across teams each season

The file “lag-combined-1990_2016.csv” should represent every game between 1990 and 2016 with two lines, one for each team. I’ll filter to 1992 through 2011 to match the year range used by SSA.

(lag <- read_csv("../outputs/lag/lag-combined-1990_2016.csv") %>%
     mutate(date = ymd(date),
            year = year(date)) %>%
     filter(between(year, 1992, 2011)) %>%
     mutate(game_tz = factor(game_tz,
                             levels = c("ET", "CT", "MT", "PT", "other"))))
#> # A tibble: 93,120 x 10
#>    date       team  game_tz   lag matchup tz_shift days_delta game_id
#>    <date>     <chr> <fct>   <int> <chr>   <chr>         <int> <chr>  
#>  1 1992-04-06 BAL   ET          0 CLE@BAL 0->0              0 0      
#>  2 1992-04-06 CLE   ET          0 CLE@BAL 0->0              0 0      
#>  3 1992-04-06 OAK   PT          0 KCA@OAK 3->3              0 0      
#>  4 1992-04-06 KCA   PT          0 KCA@OAK 3->3              0 0      
#>  5 1992-04-06 MIL   CT          0 MIN@MIL 1->1              0 0      
#>  6 1992-04-06 MIN   CT          0 MIN@MIL 1->1              0 0      
#>  7 1992-04-06 PIT   ET          0 MON@PIT 0->0              0 0      
#>  8 1992-04-06 MON   ET          0 MON@PIT 0->0              0 0      
#>  9 1992-04-06 SLN   CT          0 NYN@SLN 1->1              0 0      
#> 10 1992-04-06 NYN   CT          0 NYN@SLN 1->1              0 0      
#> # ... with 93,110 more rows, and 2 more variables: park <chr>, year <dbl>
…
Within this list, we can see games played in Disney’s Wide World of Sports Complex, Hawaii, Japan, Puerto Rico, and Mexico. There are also games at a usual MLB park where the home team doesn’t match. For example, the Marlins played as the home team in Seattle because of a U2 concert.

SSA’s Table S2

I’ll need to do a little more work to compare my lag data set with SSA’s Table S2. With the help of pandoc, I’ve converted their docx table into a more useful format.

(s2_wide <- read_csv("../outputs/lag/song2017how-table-s2.csv") %>%
    mutate(date = ymd(date)))
#> # A tibble: 4,175 x 5
#>    date       away  home  away_lag home_lag
#>    <date>     <chr> <chr>    <int>    <int>
#>  1 1992-04-09 LAN   SDN          0       -3
#>  2 1992-04-09 SFN   ATL          2        1
#>  3 1992-04-10 MIL   ANA         -2        0
#>  4 1992-04-10 LAN   SDN          0       -2
#>  5 1992-04-10 TEX   MIN          2        0
#>  6 1992-04-13 ANA   TEX          2        0
#>  7 1992-04-13 LAN   HOU          2        0
#>  8 1992-04-13 OAK   KCA          2        2
#>  9 1992-04-13 SEA   CHA          2        2
#> 10 1992-04-14 SDN   SFN          0       -2
#> # ... with 4,165 more rows
…
I want to compare the two data sets with a join, so I need to bring their representations a bit closer. s2_wide doesn’t include double header information, so we can’t form a unique row key. Instead, I’ll filter out double header rows from both data sets. (This shouldn’t matter because the lags shouldn’t change across two games on the same day.)

(s2_cmp <- s2_wide %>%
    mutate(matchup = paste0(away, "@", home)) %>%
    gather(key = "type_team", value = "team", away, home) %>%
    gather(key = "type_lag", value = "lag", away_lag, home_lag) %>%
    arrange(date, matchup) %>%
    mutate(type_lag = str_replace(type_lag, "_lag", "")) %>%
    filter(type_team == type_lag) %>%
    select(date, team, lag, matchup))
#> # A tibble: 8,350 x 4
#>    date       team    lag matchup
#>    <date>     <chr> <int> <chr>  
#>  1 1992-04-09 LAN       0 LAN@SDN
#>  2 1992-04-09 SDN      -3 LAN@SDN
#>  3 1992-04-09 SFN       2 SFN@ATL
#>  4 1992-04-09 ATL       1 SFN@ATL
#>  5 1992-04-10 LAN       0 LAN@SDN
#>  6 1992-04-10 SDN      -2 LAN@SDN
#>  7 1992-04-10 MIL      -2 MIL@ANA
#>  8 1992-04-10 ANA       0 MIL@ANA
#>  9 1992-04-10 TEX       2 TEX@MIN
#> 10 1992-04-10 MIN       0 TEX@MIN
#> # ... with 8,340 more rows
…
