Evaluation of a simple single-year team ability model
…
Ability estimates

The order of team ability estimates should largely follow the final rankings for the 2011 season.

glog <- read_csv("../outputs/lag/log-with-lags-cleaned.csv")

(team_rank <- glog %>%
     filter(lubridate::year(date) == 2011) %>%
     count_wins() %>%
     mutate(win_perc = n_wins / n_games) %>%
     arrange(desc(win_perc)))
#> # A tibble: 30 x 4
#>    team  n_wins n_games win_perc
#>    <chr>  <int>   <int>    <dbl>
#>  1 PHI      102     162    0.630
#>  2 NYA       97     162    0.599
#>  3 MIL       96     162    0.593
#>  4 TEX       96     162    0.593
#>  5 DET       95     162    0.586
#>  6 ARI       94     162    0.580
#>  7 TBA       91     162    0.562
#>  8 BOS       90     162    0.556
#>  9 SLN       90     162    0.556
#> 10 ATL       89     162    0.549
#> # ... with 20 more rows
…
